2020-07-09T11:11:52.6188436+01:00 0HM13U201NENH:00000001 [INF] Request starting HTTP/1.1 GET http://localhost:44396/api/values   (ca22a1cb)
2020-07-09T11:11:52.6188448+01:00 0HM13U201NENI:00000001 [INF] Request starting HTTP/1.1 DEBUG http://localhost:64247/  0 (ca22a1cb)
2020-07-09T11:11:53.0577291+01:00 0HM13U201NENI:00000001 [INF] Request finished in 372.9843ms 200  (791a596a)
2020-07-09T11:11:54.7356923+01:00 0HM13U201NENH:00000001 [INF] Route matched with "{action = \"Get\", controller = \"Values\"}". Executing controller action with signature "Microsoft.AspNetCore.Mvc.ActionResult`1[System.Collections.Generic.IEnumerable`1[System.String]] Get()" on controller "BestillDemo.Controllers.ValuesController" ("BestillDemo"). (122b2fdf)
2020-07-09T11:11:54.7832754+01:00 0HM13U201NENH:00000001 [INF] Executing action method "BestillDemo.Controllers.ValuesController.Get (BestillDemo)" - Validation state: Valid (dad538d7)
2020-07-09T11:11:54.8018302+01:00 0HM13U201NENH:00000001 [INF] Executed action method "BestillDemo.Controllers.ValuesController.Get (BestillDemo)", returned result "Microsoft.AspNetCore.Mvc.ObjectResult" in 0.7445ms. (50a9e262)
2020-07-09T11:11:54.8422861+01:00 0HM13U201NENH:00000001 [INF] Executing ObjectResult, writing value of type '"System.String[]"'. (8a1b66c8)
2020-07-09T11:11:55.3331565+01:00 0HM13U201NENH:00000001 [INF] Executed action "BestillDemo.Controllers.ValuesController.Get (BestillDemo)" in 580.0348ms (afa2e885)
2020-07-09T11:11:55.3957131+01:00 0HM13U201NENH:00000001 [INF] Request finished in 2753.2126ms 200 application/json; charset=utf-8 (791a596a)
2020-07-09T11:11:56.2284207+01:00 0HM13U201NENI:00000002 [INF] Request starting HTTP/1.1 GET http://localhost:44396/favicon.ico   (ca22a1cb)
2020-07-09T11:11:56.2374035+01:00 0HM13U201NENI:00000002 [INF] Request finished in 6.9016ms 404  (791a596a)
2020-07-09T11:12:49.4023055+01:00 0HM13U201NENH:00000002 [INF] Request starting HTTP/1.1 GET http://localhost:44396/api/controller   (ca22a1cb)
2020-07-09T11:12:49.4122033+01:00 0HM13U201NENH:00000002 [INF] Request finished in 6.4295ms 404  (791a596a)
2020-07-09T12:03:07.0742815+01:00 0HM13UUKA1EL0:00000001 [INF] Request starting HTTP/1.1 DEBUG http://localhost:64247/  0 (ca22a1cb)
2020-07-09T12:03:07.0742815+01:00 0HM13UUKA1EL1:00000001 [INF] Request starting HTTP/1.1 GET http://localhost:44396/api/values   (ca22a1cb)
2020-07-09T12:03:07.2354980+01:00 0HM13UUKA1EL0:00000001 [INF] Request finished in 146.8278ms 200  (791a596a)
2020-07-09T12:03:07.9007073+01:00 0HM13UUKA1EL1:00000001 [INF] Route matched with "{action = \"Get\", controller = \"Values\"}". Executing controller action with signature "Microsoft.AspNetCore.Mvc.ActionResult`1[System.Collections.Generic.IEnumerable`1[System.String]] Get()" on controller "BestillDemo.Controllers.ValuesController" ("BestillDemo"). (122b2fdf)
2020-07-09T12:03:07.9361400+01:00 0HM13UUKA1EL1:00000001 [INF] Executing action method "BestillDemo.Controllers.ValuesController.Get (BestillDemo)" - Validation state: Valid (dad538d7)
2020-07-09T12:03:07.9503054+01:00 0HM13UUKA1EL1:00000001 [INF] Executed action method "BestillDemo.Controllers.ValuesController.Get (BestillDemo)", returned result "Microsoft.AspNetCore.Mvc.ObjectResult" in 0.4753ms. (50a9e262)
2020-07-09T12:03:08.0847042+01:00 0HM13UUKA1EL1:00000001 [INF] Executing ObjectResult, writing value of type '"System.String[]"'. (8a1b66c8)
2020-07-09T12:03:08.7084073+01:00 0HM13UUKA1EL1:00000001 [INF] Executed action "BestillDemo.Controllers.ValuesController.Get (BestillDemo)" in 779.7378ms (afa2e885)
2020-07-09T12:03:08.8718117+01:00 0HM13UUKA1EL1:00000001 [INF] Request finished in 1700.9447ms 200 application/json; charset=utf-8 (791a596a)
